amqp==2.5.2
anyjson==0.3.3
appconfig==0.1
appdirs==1.4.3
astroid==2.3.3
attrs==19.3.0
billiard==3.6.1.0
celery==4.3.0
Django==2.2.6
django-celery-beat==1.5.0
django-celery-results==1.1.2
django-cors-headers==3.1.1
django-filter==2.2.0
django-service-objects==0.5.0
django-timezone-field==3.1
djangorestframework==3.10.3
freeze==1.0.10
importlib-metadata==0.23
isort==4.3.21
kombu==4.6.6
lazy-object-proxy==1.4.3
Markdown==3.1.1
mccabe==0.6.1
more-itertools==7.2.0
packaging==19.2
pluggy==0.13.1
ptvsd==4.3.2
py==1.8.0
pylint==2.4.3
pyparsing==2.4.5
pytest==5.3.0
pytest-django==3.7.0
python-crontab==2.4.0
python-dateutil==2.8.1
pytz==2019.3
six==1.13.0
SQLAlchemy==1.3.11
sqlparse==0.3.0
typed-ast==1.4.0
vine==1.3.0
wcwidth==0.1.7
wrapt==1.11.2
zipp==0.6.0
