<?xml version="1.0" encoding="UTF-8" standalone="no"?>
<!-- Created with Inkscape (http://www.inkscape.org/) -->

<svg
   xmlns:dc="http://purl.org/dc/elements/1.1/"
   xmlns:cc="http://creativecommons.org/ns#"
   xmlns:rdf="http://www.w3.org/1999/02/22-rdf-syntax-ns#"
   xmlns:svg="http://www.w3.org/2000/svg"
   xmlns="http://www.w3.org/2000/svg"
   xmlns:sodipodi="http://sodipodi.sourceforge.net/DTD/sodipodi-0.dtd"
   xmlns:inkscape="http://www.inkscape.org/namespaces/inkscape"
   width="210mm"
   height="297mm"
   viewBox="0 0 210 297"
   version="1.1"
   id="svg8"
   inkscape:version="0.92.3 (2405546, 2018-03-11)"
   sodipodi:docname="page2.svg">
  <defs
     id="defs2" />
  <sodipodi:namedview
     id="base"
     pagecolor="#ffffff"
     bordercolor="#666666"
     borderopacity="1.0"
     inkscape:pageopacity="0.0"
     inkscape:pageshadow="2"
     inkscape:zoom="0.7"
     inkscape:cx="149.40219"
     inkscape:cy="618.63188"
     inkscape:document-units="mm"
     inkscape:current-layer="g4656"
     showgrid="false"
     inkscape:window-width="1853"
     inkscape:window-height="1025"
     inkscape:window-x="67"
     inkscape:window-y="27"
     inkscape:window-maximized="1" />
  <metadata
     id="metadata5">
    <rdf:RDF>
      <cc:Work
         rdf:about="">
        <dc:format>image/svg+xml</dc:format>
        <dc:type
           rdf:resource="http://purl.org/dc/dcmitype/StillImage" />
        <dc:title></dc:title>
      </cc:Work>
    </rdf:RDF>
  </metadata>
  <rect
     style="fill:#e6e6e6;stroke-width:0.26431876"
     id="rect3771"
     width="199.927"
     height="258.53571"
     x="5.6696429"
     y="26.747023"
     inkscape:label="Container" />
  <g
     inkscape:label="Layer 1"
     inkscape:groupmode="layer"
     id="layer1">
    <text
       xml:space="preserve"
       style="font-style:normal;font-variant:normal;font-weight:bold;font-stretch:normal;font-size:10.58333302px;line-height:1.25;font-family:sans-serif;-inkscape-font-specification:'sans-serif, Bold';font-variant-ligatures:normal;font-variant-caps:normal;font-variant-numeric:normal;font-feature-settings:normal;text-align:start;letter-spacing:0px;word-spacing:0px;writing-mode:lr-tb;text-anchor:start;fill:#000000;fill-opacity:1;stroke:none;stroke-width:0.26458332"
       x="5.2916675"
       y="17.297619"
       id="text3715"
       inkscape:label="Header"><tspan
         sodipodi:role="line"
         x="5.2916675"
         y="17.297619"
         style="font-style:normal;font-variant:normal;font-weight:bold;font-stretch:normal;font-size:10.58333302px;font-family:sans-serif;-inkscape-font-specification:'sans-serif, Bold';font-variant-ligatures:normal;font-variant-caps:normal;font-variant-numeric:normal;font-feature-settings:normal;text-align:start;writing-mode:lr-tb;text-anchor:start;stroke-width:0.26458332"
         id="tspan3765">Tests</tspan></text>
    <g
       transform="translate(0,164.04213)"
       inkscape:label="Item3"
       id="g4605">
      <rect
         style="fill:#e6e6e6;stroke:#000000;stroke-width:0.26458332;stroke-opacity:1"
         id="rect4599"
         width="199.19347"
         height="27.214287"
         x="5.6696429"
         y="26.747023"
         inkscape:label="Background" />
      <text
         inkscape:label="Test title"
         xml:space="preserve"
         style="font-style:normal;font-variant:normal;font-weight:normal;font-stretch:normal;font-size:10.58333302px;line-height:1.25;font-family:sans-serif;-inkscape-font-specification:'sans-serif, Normal';font-variant-ligatures:normal;font-variant-caps:normal;font-variant-numeric:normal;font-feature-settings:normal;text-align:start;letter-spacing:0px;word-spacing:0px;writing-mode:lr-tb;text-anchor:start;fill:#000000;fill-opacity:1;stroke:none;stroke-width:0.26458332"
         x="16.252975"
         y="44.13393"
         id="text4603"><tspan
           sodipodi:role="line"
           id="tspan4611"
           x="16.252975"
           y="44.13393">Test3 [Big update batch]</tspan></text>
    </g>
    <g
       id="g4587"
       inkscape:label="Item2"
       transform="translate(0,26.987511)">
      <rect
         inkscape:label="Background"
         y="26.747023"
         x="5.6696429"
         height="137.05463"
         width="199.19347"
         id="rect3773"
         style="fill:#e6e6e6;stroke:#000000;stroke-width:0.26458332;stroke-opacity:1" />
      <text
         id="text4582"
         y="44.13393"
         x="16.252975"
         style="font-style:normal;font-variant:normal;font-weight:normal;font-stretch:normal;font-size:10.58333302px;line-height:1.25;font-family:sans-serif;-inkscape-font-specification:'sans-serif, Normal';font-variant-ligatures:normal;font-variant-caps:normal;font-variant-numeric:normal;font-feature-settings:normal;text-align:start;letter-spacing:0px;word-spacing:0px;writing-mode:lr-tb;text-anchor:start;fill:#000000;fill-opacity:1;stroke:none;stroke-width:0.26458332"
         xml:space="preserve"
         inkscape:label="Test title"><tspan
           sodipodi:role="line"
           id="tspan4597"
           x="16.252975"
           y="44.13393">Test2 [Low insertion batch]</tspan></text>
      <g
         id="g4656"
         inkscape:label="Test Summary">
        <rect
           inkscape:label="Test Summary Background"
           y="49.274395"
           x="17.008928"
           height="105.83333"
           width="187.47618"
           id="rect4632"
           style="fill:#e6e6e6;stroke:#000000;stroke-width:0.26458332;stroke-opacity:1" />
        <text
           inkscape:label="Test summary text"
           id="text4636"
           y="64.771416"
           x="25.324406"
           style="font-style:normal;font-weight:normal;font-size:10.58333302px;line-height:1.25;font-family:sans-serif;letter-spacing:0px;word-spacing:0px;fill:#000000;fill-opacity:1;stroke:none;stroke-width:0.26458332"
           xml:space="preserve"><tspan
             style="stroke-width:0.26458332"
             y="64.771416"
             x="25.324406"
             id="tspan4634"
             sodipodi:role="line">input: docker image oracle nosql</tspan><tspan
             id="tspan4638"
             style="stroke-width:0.26458332"
             y="78.00058"
             x="25.324406"
             sodipodi:role="line">cluster nodes: 2</tspan><tspan
             id="tspan4640"
             style="stroke-width:0.26458332"
             y="91.229752"
             x="25.324406"
             sodipodi:role="line">replication factor: 2</tspan><tspan
             id="tspan4642"
             style="stroke-width:0.26458332"
             y="104.45892"
             x="25.324406"
             sodipodi:role="line">tables count: 3</tspan><tspan
             id="tspan4644"
             style="stroke-width:0.26458332"
             y="117.68808"
             x="25.324406"
             sodipodi:role="line">initial data amount: 100M</tspan><tspan
             id="tspan4646"
             style="stroke-width:0.26458332"
             y="130.91725"
             x="25.324406"
             sodipodi:role="line">... other valuable info</tspan></text>
        <g
           id="g4664"
           inkscape:label="Run Button">
          <rect
             inkscape:label="Run Button Background"
             y="124.49166"
             x="163.28572"
             height="30.616072"
             width="41.199394"
             id="rect4658"
             style="fill:#e6e6e6;stroke:#000000;stroke-width:0.26458332;stroke-opacity:1" />
          <path
             sodipodi:nodetypes="cccc"
             inkscape:connector-curvature="0"
             id="path4660"
             d="m 170.46726,130.53927 v 18.52084 l 15.875,-9.82738 z"
             style="fill:none;stroke:#000000;stroke-width:0.26458332px;stroke-linecap:butt;stroke-linejoin:miter;stroke-opacity:1" />
        </g>
      </g>
    </g>
    <g
       inkscape:label="Item1"
       id="g4595">
      <rect
         style="fill:#e6e6e6;stroke:#000000;stroke-width:0.26458332;stroke-opacity:1"
         id="rect4589"
         width="199.19347"
         height="27.214287"
         x="5.6696429"
         y="26.747023"
         inkscape:label="Background" />
      <text
         inkscape:label="Test title"
         xml:space="preserve"
         style="font-style:normal;font-weight:normal;font-size:10.58333302px;line-height:1.25;font-family:sans-serif;letter-spacing:0px;word-spacing:0px;fill:#000000;fill-opacity:1;stroke:none;stroke-width:0.26458332"
         x="16.252975"
         y="44.13393"
         id="text4593"><tspan
           sodipodi:role="line"
           id="tspan4591"
           x="16.252975"
           y="44.13393"
           style="stroke-width:0.26458332">Test1 [Performance of insertion]</tspan></text>
    </g>
  </g>
</svg>
