<?xml version="1.0" encoding="UTF-8" standalone="no"?>
<!-- Created with Inkscape (http://www.inkscape.org/) -->

<svg
   xmlns:dc="http://purl.org/dc/elements/1.1/"
   xmlns:cc="http://creativecommons.org/ns#"
   xmlns:rdf="http://www.w3.org/1999/02/22-rdf-syntax-ns#"
   xmlns:svg="http://www.w3.org/2000/svg"
   xmlns="http://www.w3.org/2000/svg"
   xmlns:sodipodi="http://sodipodi.sourceforge.net/DTD/sodipodi-0.dtd"
   xmlns:inkscape="http://www.inkscape.org/namespaces/inkscape"
   width="210mm"
   height="297mm"
   viewBox="0 0 210 297"
   version="1.1"
   id="svg8"
   inkscape:version="0.92.3 (2405546, 2018-03-11)"
   sodipodi:docname="page3.svg">
  <defs
     id="defs2" />
  <sodipodi:namedview
     id="base"
     pagecolor="#ffffff"
     bordercolor="#666666"
     borderopacity="1.0"
     inkscape:pageopacity="0.0"
     inkscape:pageshadow="2"
     inkscape:zoom="0.7"
     inkscape:cx="149.40219"
     inkscape:cy="571.88429"
     inkscape:document-units="mm"
     inkscape:current-layer="g4587"
     showgrid="false"
     inkscape:window-width="1853"
     inkscape:window-height="1025"
     inkscape:window-x="67"
     inkscape:window-y="27"
     inkscape:window-maximized="1" />
  <metadata
     id="metadata5">
    <rdf:RDF>
      <cc:Work
         rdf:about="">
        <dc:format>image/svg+xml</dc:format>
        <dc:type
           rdf:resource="http://purl.org/dc/dcmitype/StillImage" />
        <dc:title></dc:title>
      </cc:Work>
    </rdf:RDF>
  </metadata>
  <rect
     style="fill:#e6e6e6;stroke-width:0.26431876"
     id="rect3771"
     width="199.927"
     height="258.53571"
     x="5.6696429"
     y="26.747023"
     inkscape:label="Container" />
  <g
     inkscape:label="Layer 1"
     inkscape:groupmode="layer"
     id="layer1">
    <text
       xml:space="preserve"
       style="font-style:normal;font-variant:normal;font-weight:bold;font-stretch:normal;font-size:10.58333302px;line-height:1.25;font-family:sans-serif;-inkscape-font-specification:'sans-serif, Bold';font-variant-ligatures:normal;font-variant-caps:normal;font-variant-numeric:normal;font-feature-settings:normal;text-align:start;letter-spacing:0px;word-spacing:0px;writing-mode:lr-tb;text-anchor:start;fill:#000000;fill-opacity:1;stroke:none;stroke-width:0.26458332"
       x="5.2916675"
       y="17.297619"
       id="text3715"
       inkscape:label="Header"><tspan
         sodipodi:role="line"
         x="5.2916675"
         y="17.297619"
         style="font-style:normal;font-variant:normal;font-weight:bold;font-stretch:normal;font-size:10.58333302px;font-family:sans-serif;-inkscape-font-specification:'sans-serif, Bold';font-variant-ligatures:normal;font-variant-caps:normal;font-variant-numeric:normal;font-feature-settings:normal;text-align:start;writing-mode:lr-tb;text-anchor:start;stroke-width:0.26458332"
         id="tspan3765">Tests</tspan></text>
    <g
       transform="translate(0,164.04213)"
       inkscape:label="Item3"
       id="g4605">
      <rect
         style="fill:#e6e6e6;stroke:#000000;stroke-width:0.26458332;stroke-opacity:1"
         id="rect4599"
         width="199.19347"
         height="27.214287"
         x="5.6696429"
         y="26.747023"
         inkscape:label="Background" />
      <text
         inkscape:label="Test title"
         xml:space="preserve"
         style="font-style:normal;font-variant:normal;font-weight:normal;font-stretch:normal;font-size:10.58333302px;line-height:1.25;font-family:sans-serif;-inkscape-font-specification:'sans-serif, Normal';font-variant-ligatures:normal;font-variant-caps:normal;font-variant-numeric:normal;font-feature-settings:normal;text-align:start;letter-spacing:0px;word-spacing:0px;writing-mode:lr-tb;text-anchor:start;fill:#000000;fill-opacity:1;stroke:none;stroke-width:0.26458332"
         x="16.252975"
         y="44.13393"
         id="text4603"><tspan
           sodipodi:role="line"
           id="tspan4611"
           x="16.252975"
           y="44.13393">Test3 [Big update batch]</tspan></text>
    </g>
    <g
       id="g4587"
       inkscape:label="Item2"
       transform="translate(0,26.987511)">
      <rect
         inkscape:label="Background"
         y="26.747023"
         x="5.6696429"
         height="137.05463"
         width="199.19347"
         id="rect3773"
         style="fill:#e6e6e6;stroke:#000000;stroke-width:0.26458332;stroke-opacity:1" />
      <text
         id="text4582"
         y="44.13393"
         x="16.252975"
         style="font-style:normal;font-variant:normal;font-weight:normal;font-stretch:normal;font-size:10.58333302px;line-height:1.25;font-family:sans-serif;-inkscape-font-specification:'sans-serif, Normal';font-variant-ligatures:normal;font-variant-caps:normal;font-variant-numeric:normal;font-feature-settings:normal;text-align:start;letter-spacing:0px;word-spacing:0px;writing-mode:lr-tb;text-anchor:start;fill:#000000;fill-opacity:1;stroke:none;stroke-width:0.26458332"
         xml:space="preserve"
         inkscape:label="Test title"><tspan
           sodipodi:role="line"
           id="tspan4597"
           x="16.252975"
           y="44.13393">Test2 [Low insertion batch]</tspan></text>
      <g
         id="g4656"
         inkscape:label="Run status">
        <rect
           inkscape:label="Test Summary Background"
           y="49.274395"
           x="17.008928"
           height="105.83333"
           width="177.27083"
           id="rect4632"
           style="fill:#e6e6e6;stroke:#000000;stroke-width:0.26458332;stroke-opacity:1" />
        <g
           id="g4852"
           inkscape:label="Stage row"
           transform="translate(0,69.320871)">
          <rect
             y="70.819031"
             x="17.008928"
             height="14.74107"
             width="125.86607"
             id="rect4840"
             style="fill:#e6e6e6;stroke:#000000;stroke-width:0.26458332;stroke-opacity:1" />
          <text
             xml:space="preserve"
             style="font-style:normal;font-variant:normal;font-weight:normal;font-stretch:normal;font-size:7.05555534px;line-height:1.25;font-family:sans-serif;-inkscape-font-specification:'sans-serif, Normal';font-variant-ligatures:normal;font-variant-caps:normal;font-variant-numeric:normal;font-feature-settings:normal;text-align:start;letter-spacing:0px;word-spacing:0px;writing-mode:lr-tb;text-anchor:start;fill:#000000;fill-opacity:1;stroke:none;stroke-width:0.26458332"
             x="20.410713"
             y="80.722023"
             id="text4844"><tspan
               sodipodi:role="line"
               id="tspan4854"
               x="20.410713"
               y="80.722023">Gathering statistics</tspan></text>
          <rect
             y="70.819023"
             x="142.875"
             height="14.74108"
             width="51.40477"
             id="rect4846"
             style="fill:#e6e6e6;stroke:#000000;stroke-width:0.26458332;stroke-opacity:1" />
          <text
             xml:space="preserve"
             style="font-style:normal;font-variant:normal;font-weight:normal;font-stretch:normal;font-size:7.05555534px;line-height:1.25;font-family:sans-serif;-inkscape-font-specification:'sans-serif, Normal';font-variant-ligatures:normal;font-variant-caps:normal;font-variant-numeric:normal;font-feature-settings:normal;text-align:start;letter-spacing:0px;word-spacing:0px;writing-mode:lr-tb;text-anchor:start;fill:#000000;fill-opacity:1;stroke:none;stroke-width:0.26458332"
             x="146.48203"
             y="81.386871"
             id="text4850"><tspan
               y="81.386871"
               x="146.48203"
               id="tspan4848"
               sodipodi:role="line">-</tspan></text>
        </g>
        <g
           transform="translate(0,54.504195)"
           inkscape:label="Stage row"
           id="g4834">
          <rect
             style="fill:#e6e6e6;stroke:#000000;stroke-width:0.26458332;stroke-opacity:1"
             id="rect4822"
             width="125.86607"
             height="14.74107"
             x="17.008928"
             y="70.819031" />
          <text
             id="text4826"
             y="80.722023"
             x="20.410713"
             style="font-style:normal;font-variant:normal;font-weight:normal;font-stretch:normal;font-size:7.05555534px;line-height:1.25;font-family:sans-serif;-inkscape-font-specification:'sans-serif, Normal';font-variant-ligatures:normal;font-variant-caps:normal;font-variant-numeric:normal;font-feature-settings:normal;text-align:start;letter-spacing:0px;word-spacing:0px;writing-mode:lr-tb;text-anchor:start;fill:#000000;fill-opacity:1;stroke:none;stroke-width:0.26458332"
             xml:space="preserve"><tspan
               sodipodi:role="line"
               id="tspan4838"
               x="20.410713"
               y="80.722023">Execute scenario</tspan></text>
          <rect
             style="fill:#e6e6e6;stroke:#000000;stroke-width:0.26458332;stroke-opacity:1"
             id="rect4828"
             width="51.40477"
             height="14.74108"
             x="142.875"
             y="70.819023" />
          <text
             id="text4832"
             y="81.386871"
             x="146.48203"
             style="font-style:normal;font-variant:normal;font-weight:normal;font-stretch:normal;font-size:7.05555534px;line-height:1.25;font-family:sans-serif;-inkscape-font-specification:'sans-serif, Normal';font-variant-ligatures:normal;font-variant-caps:normal;font-variant-numeric:normal;font-feature-settings:normal;text-align:start;letter-spacing:0px;word-spacing:0px;writing-mode:lr-tb;text-anchor:start;fill:#000000;fill-opacity:1;stroke:none;stroke-width:0.26458332"
             xml:space="preserve"><tspan
               sodipodi:role="line"
               id="tspan4836"
               x="146.48203"
               y="81.386871">-</tspan></text>
        </g>
        <g
           id="g4812"
           inkscape:label="Stage row"
           transform="translate(0,40.216686)">
          <rect
             y="70.819031"
             x="17.008928"
             height="14.74107"
             width="125.86607"
             id="rect4800"
             style="fill:#e6e6e6;stroke:#000000;stroke-width:0.26458332;stroke-opacity:1" />
          <text
             xml:space="preserve"
             style="font-style:normal;font-variant:normal;font-weight:normal;font-stretch:normal;font-size:7.05555534px;line-height:1.25;font-family:sans-serif;-inkscape-font-specification:'sans-serif, Normal';font-variant-ligatures:normal;font-variant-caps:normal;font-variant-numeric:normal;font-feature-settings:normal;text-align:start;letter-spacing:0px;word-spacing:0px;writing-mode:lr-tb;text-anchor:start;fill:#000000;fill-opacity:1;stroke:none;stroke-width:0.26458332"
             x="20.410713"
             y="80.722023"
             id="text4804"><tspan
               sodipodi:role="line"
               id="tspan4818"
               x="20.410713"
               y="80.722023">Load data</tspan></text>
          <rect
             y="70.819023"
             x="142.875"
             height="14.74108"
             width="51.40477"
             id="rect4806"
             style="fill:#e6e6e6;stroke:#000000;stroke-width:0.26458332;stroke-opacity:1" />
          <text
             xml:space="preserve"
             style="font-style:normal;font-variant:normal;font-weight:normal;font-stretch:normal;font-size:7.05555534px;line-height:1.25;font-family:sans-serif;-inkscape-font-specification:'sans-serif, Normal';font-variant-ligatures:normal;font-variant-caps:normal;font-variant-numeric:normal;font-feature-settings:normal;text-align:start;letter-spacing:0px;word-spacing:0px;writing-mode:lr-tb;text-anchor:start;fill:#000000;fill-opacity:1;stroke:none;stroke-width:0.26458332"
             x="146.48203"
             y="81.386871"
             id="text4810"><tspan
               sodipodi:role="line"
               id="tspan4820"
               x="146.48203"
               y="81.386871">Fail</tspan></text>
        </g>
        <g
           transform="translate(0,25.40001)"
           inkscape:label="Stage row"
           id="g4791">
          <rect
             style="fill:#e6e6e6;stroke:#000000;stroke-width:0.26458332;stroke-opacity:1"
             id="rect4779"
             width="125.86607"
             height="14.74107"
             x="17.008928"
             y="70.819031" />
          <text
             id="text4783"
             y="80.722023"
             x="20.410713"
             style="font-style:normal;font-variant:normal;font-weight:normal;font-stretch:normal;font-size:7.05555534px;line-height:1.25;font-family:sans-serif;-inkscape-font-specification:'sans-serif, Normal';font-variant-ligatures:normal;font-variant-caps:normal;font-variant-numeric:normal;font-feature-settings:normal;text-align:start;letter-spacing:0px;word-spacing:0px;writing-mode:lr-tb;text-anchor:start;fill:#000000;fill-opacity:1;stroke:none;stroke-width:0.26458332"
             xml:space="preserve"><tspan
               sodipodi:role="line"
               id="tspan4816"
               x="20.410713"
               y="80.722023">Create data model</tspan></text>
          <rect
             style="fill:#e6e6e6;stroke:#000000;stroke-width:0.26458332;stroke-opacity:1"
             id="rect4785"
             width="51.40477"
             height="14.74108"
             x="142.875"
             y="70.819023" />
          <text
             id="text4789"
             y="81.386871"
             x="146.48203"
             style="font-style:normal;font-variant:normal;font-weight:normal;font-stretch:normal;font-size:7.05555534px;line-height:1.25;font-family:sans-serif;-inkscape-font-specification:'sans-serif, Normal';font-variant-ligatures:normal;font-variant-caps:normal;font-variant-numeric:normal;font-feature-settings:normal;text-align:start;letter-spacing:0px;word-spacing:0px;writing-mode:lr-tb;text-anchor:start;fill:#000000;fill-opacity:1;stroke:none;stroke-width:0.26458332"
             xml:space="preserve"><tspan
               y="81.386871"
               x="146.48203"
               id="tspan4787"
               sodipodi:role="line">Success</tspan></text>
        </g>
        <g
           id="g4693"
           inkscape:label="Stage row"
           transform="translate(0,10.583334)">
          <rect
             y="70.819031"
             x="17.008928"
             height="14.74107"
             width="125.86607"
             id="rect4687"
             style="fill:#e6e6e6;stroke:#000000;stroke-width:0.26458332;stroke-opacity:1" />
          <text
             xml:space="preserve"
             style="font-style:normal;font-variant:normal;font-weight:normal;font-stretch:normal;font-size:7.05555534px;line-height:1.25;font-family:sans-serif;-inkscape-font-specification:'sans-serif, Normal';font-variant-ligatures:normal;font-variant-caps:normal;font-variant-numeric:normal;font-feature-settings:normal;text-align:start;letter-spacing:0px;word-spacing:0px;writing-mode:lr-tb;text-anchor:start;fill:#000000;fill-opacity:1;stroke:none;stroke-width:0.26458332"
             x="20.410713"
             y="80.722023"
             id="text4739"><tspan
               sodipodi:role="line"
               id="tspan4814"
               x="20.410713"
               y="80.722023">Setup cluster</tspan></text>
          <rect
             y="70.819023"
             x="142.875"
             height="14.74108"
             width="51.40477"
             id="rect4689"
             style="fill:#e6e6e6;stroke:#000000;stroke-width:0.26458332;stroke-opacity:1" />
          <text
             xml:space="preserve"
             style="font-style:normal;font-variant:normal;font-weight:normal;font-stretch:normal;font-size:7.05555534px;line-height:1.25;font-family:sans-serif;-inkscape-font-specification:'sans-serif, Normal';font-variant-ligatures:normal;font-variant-caps:normal;font-variant-numeric:normal;font-feature-settings:normal;text-align:start;letter-spacing:0px;word-spacing:0px;writing-mode:lr-tb;text-anchor:start;fill:#000000;fill-opacity:1;stroke:none;stroke-width:0.26458332"
             x="146.48203"
             y="81.386871"
             id="text4739-5"><tspan
               sodipodi:role="line"
               id="tspan4761"
               x="146.48203"
               y="81.386871">Success</tspan></text>
        </g>
        <g
           inkscape:label="Stage row"
           id="g4777"
           transform="translate(0,-4.2333335)">
          <rect
             style="fill:#e6e6e6;stroke:#000000;stroke-width:0.26458332;stroke-opacity:1"
             id="rect4765"
             width="125.86607"
             height="14.74107"
             x="17.008928"
             y="70.819031" />
          <text
             id="text4769"
             y="80.722023"
             x="20.410713"
             style="font-style:normal;font-variant:normal;font-weight:normal;font-stretch:normal;font-size:7.05555534px;line-height:1.25;font-family:sans-serif;-inkscape-font-specification:'sans-serif, Normal';font-variant-ligatures:normal;font-variant-caps:normal;font-variant-numeric:normal;font-feature-settings:normal;text-align:start;letter-spacing:0px;word-spacing:0px;writing-mode:lr-tb;text-anchor:start;fill:#000000;fill-opacity:1;stroke:none;stroke-width:0.26458332"
             xml:space="preserve"><tspan
               y="80.722023"
               x="20.410713"
               id="tspan4767"
               sodipodi:role="line">Download of docker images</tspan></text>
          <rect
             style="fill:#e6e6e6;stroke:#000000;stroke-width:0.26458332;stroke-opacity:1"
             id="rect4771"
             width="51.40477"
             height="14.74108"
             x="142.875"
             y="70.819023" />
          <text
             id="text4775"
             y="81.386871"
             x="146.48203"
             style="font-style:normal;font-variant:normal;font-weight:normal;font-stretch:normal;font-size:7.05555534px;line-height:1.25;font-family:sans-serif;-inkscape-font-specification:'sans-serif, Normal';font-variant-ligatures:normal;font-variant-caps:normal;font-variant-numeric:normal;font-feature-settings:normal;text-align:start;letter-spacing:0px;word-spacing:0px;writing-mode:lr-tb;text-anchor:start;fill:#000000;fill-opacity:1;stroke:none;stroke-width:0.26458332"
             xml:space="preserve"><tspan
               y="81.386871"
               x="146.48203"
               id="tspan4773"
               sodipodi:role="line">Success</tspan></text>
        </g>
      </g>
      <text
         xml:space="preserve"
         style="font-style:normal;font-weight:bold;font-size:10.58333333px;line-height:1.25;font-family:sans-serif;letter-spacing:0px;word-spacing:0px;fill:#000000;fill-opacity:1;stroke:none;stroke-width:0.26458332;-inkscape-font-specification:'sans-serif, Bold';font-stretch:normal;font-variant:normal;text-anchor:start;text-align:start;writing-mode:lr;font-variant-ligatures:normal;font-variant-caps:normal;font-variant-numeric:normal;font-feature-settings:normal;"
         x="20.335112"
         y="61.672009"
         id="text4879"><tspan
           sodipodi:role="line"
           id="tspan4877"
           x="20.335112"
           y="61.672009"
           style="stroke-width:0.26458332;-inkscape-font-specification:'sans-serif, Bold';font-family:sans-serif;font-weight:bold;font-style:normal;font-stretch:normal;font-variant:normal;font-size:10.58333333px;text-anchor:start;text-align:start;writing-mode:lr;font-variant-ligatures:normal;font-variant-caps:normal;font-variant-numeric:normal;font-feature-settings:normal;">Edit test</tspan></text>
    </g>
    <g
       inkscape:label="Item1"
       id="g4595">
      <rect
         style="fill:#e6e6e6;stroke:#000000;stroke-width:0.26458332;stroke-opacity:1"
         id="rect4589"
         width="199.19347"
         height="27.214287"
         x="5.6696429"
         y="26.747023"
         inkscape:label="Background" />
      <text
         inkscape:label="Test title"
         xml:space="preserve"
         style="font-style:normal;font-weight:normal;font-size:10.58333302px;line-height:1.25;font-family:sans-serif;letter-spacing:0px;word-spacing:0px;fill:#000000;fill-opacity:1;stroke:none;stroke-width:0.26458332"
         x="16.252975"
         y="44.13393"
         id="text4593"><tspan
           sodipodi:role="line"
           id="tspan4591"
           x="16.252975"
           y="44.13393"
           style="stroke-width:0.26458332">Test1 [Performance of insertion]</tspan></text>
    </g>
  </g>
</svg>
